digraph "PrakticheskayaRabota3.Form1.Form1"
{
 // LATEX_PDF_SIZE
  edge [fontname="Helvetica",fontsize="10",labelfontname="Helvetica",labelfontsize="10"];
  node [fontname="Helvetica",fontsize="10",shape=record];
  rankdir="LR";
  Node1 [label="PrakticheskayaRabota3.Form1.\lForm1",height=0.2,width=0.4,color="black", fillcolor="grey75", style="filled", fontcolor="black",tooltip=" "];
  Node1 -> Node2 [color="midnightblue",fontsize="10",style="solid",fontname="Helvetica"];
  Node2 [label="PrakticheskayaRabota3.Form1.\lInitializeComponent",height=0.2,width=0.4,color="black", fillcolor="white", style="filled",URL="$class_prakticheskaya_rabota3_1_1_form1.html#af55c7e1b1de0bc482b111a5afa341230",tooltip="Требуемый метод для поддержки конструктора — не изменяйте содержимое этого метода с помощью редактора..."];
  Node2 -> Node3 [color="midnightblue",fontsize="10",style="solid",fontname="Helvetica"];
  Node3 [label="PrakticheskayaRabota3.Form1.button1\l_Click",height=0.2,width=0.4,color="black", fillcolor="white", style="filled",URL="$class_prakticheskaya_rabota3_1_1_form1.html#aba55c1b796427169ecd1cf1ad9d87a42",tooltip="Событие на обработку кнопки \"Вычислить\" По нажатию на кнопу происходит выполнение функции \"MinMove\" и..."];
  Node3 -> Node4 [color="midnightblue",fontsize="10",style="solid",fontname="Helvetica"];
  Node4 [label="PavelMorozov.PMath.MinMove",height=0.2,width=0.4,color="black", fillcolor="white", style="filled",URL="$class_pavel_morozov_1_1_p_math.html#ac6a08a34780505fc171331a59b1f8a27",tooltip="Метод обределяющий минимальное количество дейтсвий для достижения цели"];
  Node2 -> Node5 [color="midnightblue",fontsize="10",style="solid",fontname="Helvetica"];
  Node5 [label="PrakticheskayaRabota3.Form1.\lUpDownK_ValueChanged",height=0.2,width=0.4,color="black", fillcolor="white", style="filled",URL="$class_prakticheskaya_rabota3_1_1_form1.html#af3de287b371ac37a07ff44991d153568",tooltip="Ограничения для числа делителя Число делитель не должно быть больше числа над которым производится вы..."];
  Node2 -> Node6 [color="midnightblue",fontsize="10",style="solid",fontname="Helvetica"];
  Node6 [label="PrakticheskayaRabota3.Form1.\lUpDownMin_ValueChanged",height=0.2,width=0.4,color="black", fillcolor="white", style="filled",URL="$class_prakticheskaya_rabota3_1_1_form1.html#a4066bdeb117eca5bdc04d99a520b1879",tooltip="Ограничвчение на число \"Цель\" Ответ не может быть более числа с которым производится вычисления"];
  Node2 -> Node7 [color="midnightblue",fontsize="10",style="solid",fontname="Helvetica"];
  Node7 [label="PrakticheskayaRabota3.Form1.\lUpDownNmin_ValueChanged",height=0.2,width=0.4,color="black", fillcolor="white", style="filled",URL="$class_prakticheskaya_rabota3_1_1_form1.html#a59cd45808cdb1faddc2c86e74fba4dd7",tooltip="Ограничвчение на вычитаемое число Вычитаемое число не должно быть больше чем число с которым будут пр..."];
}
